{"hash":"afa08b8c42b31d01d2895f242ba1509880418f88","data":{"category":{"title":"Love","path":"/category/love/","belongsTo":{"totalCount":3,"pageInfo":{"totalPages":2,"currentPage":1},"edges":[{"node":{"title":"Love Forever","excerpt":"setsuna f seiei","image":{"type":"image","mimeType":"image/jpeg","src":"/assets/static/steven-wong-LcemoNqHIxY-unsplash.4250cd3.b4d50c580975c45a79baac7db615d2ac.jpg","size":{"width":800,"height":1160},"sizes":"(max-width: 800px) 100vw, 800px","srcset":["/assets/static/steven-wong-LcemoNqHIxY-unsplash.1b91758.b4d50c580975c45a79baac7db615d2ac.jpg 480w","/assets/static/steven-wong-LcemoNqHIxY-unsplash.4250cd3.b4d50c580975c45a79baac7db615d2ac.jpg 800w"],"dataUri":"data:image/svg+xml,%3csvg fill='none' viewBox='0 0 800 1160' xmlns='http://www.w3.org/2000/svg' xmlns:xlink='http://www.w3.org/1999/xlink'%3e%3cdefs%3e%3cfilter id='__svg-blur-5679bea697d428f60ce152d102f610df'%3e%3cfeGaussianBlur in='SourceGraphic' stdDeviation='40'/%3e%3c/filter%3e%3c/defs%3e%3cimage x='0' y='0' filter='url(%23__svg-blur-5679bea697d428f60ce152d102f610df)' width='800' height='1160' xlink:href='data:image/jpeg%3bbase64%2c/9j/2wBDAAYEBQYFBAYGBQYHBwYIChAKCgkJChQODwwQFxQYGBcUFhYaHSUfGhsjHBYWICwgIyYnKSopGR8tMC0oMCUoKSj/2wBDAQcHBwoIChMKChMoGhYaKCgoKCgoKCgoKCgoKCgoKCgoKCgoKCgoKCgoKCgoKCgoKCgoKCgoKCgoKCgoKCgoKCj/wAARCABdAEADASIAAhEBAxEB/8QAHAAAAgIDAQEAAAAAAAAAAAAABAYFBwACAwgB/8QAMhAAAgECBAUCBQQBBQAAAAAAAQIDBBEABRIhBhMxQVFhcQcUIoGhFVKRsTIzYsHR8f/EABgBAAMBAQAAAAAAAAAAAAAAAAABAwIE/8QAIREAAgICAgIDAQAAAAAAAAAAAAECEQMhEjEEcRQiQfD/2gAMAwEAAhEDEQA/APVOMxmMwAZgWbMaOB2Sapijdeqs1iPtgljZSbE27DCVxjm5vHTmmeJHO7uoDsPTwMAH2u4mqoat4sveOqivszxlSvpe%2b/vgKPiSujzCOWc/QTZ1jBKkeo7HAkoRFUwsoVtgFP8Akfc43kMMarzamBCwvZmFyPOHxFY%2bZTmcWZwtLAkiqDb6gN/4ODsV9wpmccGfciIu1PONJYiw1dsWDhDMxHTZ5lUEnLmzKjR%2bmlplB/vCB8SuJp2rZMoopGihjAE7obF2Ivpv2ABF/OK9AA6ADCA9G09RDUx8ynmjlT9yMGH4wg8a00tXXtNEGaASIhYbXsp%2blfPcnFYpmE2XSK9JNLC%2boHVGxUA9r26i9uuL3yueLiXhikqW%2bn5iNXJA3R%2bht6g3wbGVrluU11S4qWSH5O1hIkmprk206COo/OCKjIqumWSpqzSNTFdStdhKG2soFrde%2bJuSqynIOIP0JqkGeqUVSQ6GAiAIUHV03PrfvgXi3iaJaGopMueOeqZDqkVgEiXoTqO19/PfG1sxVAGVwz5nV8qip5EiLBS5TZT5Pjzbri1aSJ4YFSSVpWA3dgBf7DFbfCnNTSquWTNC8M5LQPE2oKVXcE9%2bna%2bLOBBFwbjCkmnsaqtFCcXRvFxRmqyX1fMM2/g7j8EYiE1SSSiNGdYVDSsOiAmwvg74rZzFWcWzNQSrykjERaM/6hW9z%2bbfbC3wlX1EXEdKKMNKrtaoW11Kd9V/HXGekaW2Wjw9whBV5JTzPOHFVATJtvdiT%2bLgb/tw0ZnnVNwzkMUVLTSaY2WnREF2Zz2HqdzfBOWyURoliomSCNFsI1NjH9j/AOYTOLHizGupctlkIVGeXVqs7SW2It4HfziWJuUnZTIlGKKz4u4mmziaulYvBNFNE8TarmxBUi579/t6YH4YzCpeHMypeqqbRlUABsPrBYjwLi%2bHbOeDqDMKeCIF4mijESSLuwA3B9e/XzgvhvhukyWieKPVLJLvJK4%2bp/A9APGOuM667OdqxShz6TKxTmdKGsdIQ11kIdF9b3ANuww38J5jxdnVUtRQzU2X0sdmKPGXVh10MfJHgbdcQPEuU0cRmSlgjSOJDPMSLlmNgq39h0w68I5mWpsuyxImpVcuzT9BNbcBD5PfvYbYSXLbC%2bPRW%2bbcM5vDm8tNLTDXGdNww0gdt/bEjBDX5RGqinjeFQAWjUb28kb/AM4bKmZ6mplnk/zlYufvjjJr0nlkBuxOBQKSx3%2bjJwxxHlsHDFdmMLB5IgA8O2vWBYX9ycVjmdfPHmUdfUSaqvna2NtibG49rY7TryqxjVIIZGtqkg2DgG41L0Pvj5lGTT5/xTDSIGWEEspLAlV7sSOtlIHucXw41GEuX8iU1JNG%2bZfEGipxGIqaZ5L7gkKB7db44QfESklgZOTLDU2sitYqT74R%2bJYGTiGshkTQ0ehSoFt%2bWt9vUkn74ialAin0F8R4aNWPWcZsaylShoObU1DNzaqRVICn/oYfeDsxyvLoK6nzWaKOncrKhkBIJIs3QegwlVWmCmgjp41jCpC7IDoDNy1LM573JO5v6YHn570E6pUxTuIyCIhtc%2bvpjsxYUoU32RlO2PQmXmFGDqb7Fl2PscfZWZVupQerHHNfmC5QzRbdSYz/AD1tjvXRUkUQNQyy2tZSttR7gHoMc2rOwhq%2bczDlmenJvsFW/wDJOwwxfCnMqWnzSeBoo1eoUKJQCTcHZb9h1%2b%2bIN6WSphAEEdPCrkGw2cf7m8Yj9RljdKGYxJuqGJSCwBFtPcDbr12wTlFRoxOSirZA8e0NXmPGGeZnQ5ZmEeXrKA7zU5jIYCxsD1G19u2%2b2I7IqJZubJUUsEsBugaVbkm24Ha1sdP1mvy3Mpy09VMjs6vHNIW1MwP1b9773wBHVV0VNylqpEiRSVCL262w8MuKuRF/foZ8v5kgkE0IEQfSlgWLLa1zfv0w7RfDzPKyHQ3y1EvQFn1FR6BdvzhSyeGSkyaCCsZmmUmR9ZLHc6wpPa39k49F0k6VNLDPGbpKiup9CL4rlzTjFNaszGCbdnninzitpnDNIjSaQdTKGN/fBU/EdfVAJJVcgDUbxwruT74VqqeSKsqUUroSV1AK9AGIGBKqoneNysmgBegHXHDdlPj%2bQunr2STZhmGZs4ramSojEoQBj9Nzft0wZBNNAGDqSsR0tcdOw38XxpwZAJ8pDSkE/PJ0HhQf%2bcHiZos0zeEbxyuI2B/azISMdCipxSCeO41LtCrxBVgzrGrFpXT62IHS/nyT%2bMQle7BGsbgC%2bxxxEjPVyOTuzFvzjetPMjYHb6e2EtRozGPHRY0xlaudUTVGTct233xc3w4rmq%2bGYo5W1S0rtAT6DcfggfbFOSVLxGhaMIGljgBJF7ao1v8A1ix/hNUF3zOHSAoEUn3IYf0ox0eQuWJP0Zx6lR//2Q==' /%3e%3c/svg%3e"},"path":"/blog/love-forever/","timeToRead":0,"humanTime":"24 Dec 2019","datetime":"2019-12-24T00:00:00.000Z","category":{"id":"Love","title":"Love"},"author":[{"id":"author3","name":"John Doe","image":{"type":"image","mimeType":"image/png","src":"/assets/static/author3.6370538.fb3239b1ca9d78937c83c37a93ff5d81.png","size":{"width":60,"height":64},"sizes":"(max-width: 60px) 100vw, 60px","srcset":["/assets/static/author3.6370538.fb3239b1ca9d78937c83c37a93ff5d81.png 60w"],"dataUri":"data:image/svg+xml,%3csvg fill='none' viewBox='0 0 60 64' xmlns='http://www.w3.org/2000/svg' xmlns:xlink='http://www.w3.org/1999/xlink'%3e%3cdefs%3e%3cfilter id='__svg-blur-57d859a67fb611a9a25e06190a0f50a2'%3e%3cfeGaussianBlur in='SourceGraphic' stdDeviation='40'/%3e%3c/filter%3e%3c/defs%3e%3cimage x='0' y='0' filter='url(%23__svg-blur-57d859a67fb611a9a25e06190a0f50a2)' width='60' height='64' xlink:href='data:image/png%3bbase64%2ciVBORw0KGgoAAAANSUhEUgAAAEAAAABECAYAAAAx%2bDPIAAAACXBIWXMAAAsSAAALEgHS3X78AAAXCklEQVR42u1aCVhV17W%2bYN6Q9nvve/3ajG2TJjaKiqA4M8ggaJRJkEEZHRKN0Ze0GdrGmJhEY9MkvprWjJrBJDWmqUFxAmW4gCCTiAgqMzJzmREUuZfzv7X2OedyuGCigrb9vt7vW5zNOWevtde/hr32Plun%2b9fvX79b9mssz9N1Fe8WbUN5hq65LNWquSxFIb11c1mytXwV/yv3U3WGipO6KgNkHpX5/1xKG8rTxbWpKk%2bnUfSOtuKDVtfLo/XCfquWsqQ7qO8Y0b88TdxvKYnTGSpz/zEVby4/MdAuS7FuKU0YMwSciswfkIXvIXqI3hlHwBDpxzWXpz5M/99PPH5sqMj6z2H5lyWPISAEiM2lSQLgfwyLV2SxwgNuXpo0ZgCU9LvoWQAp%2bQ4pcJyoiMhAZGyvTIVK9H8/UQdRDdEZomPUZyf1XU9gTWuqLrxjAAi9tfCSkqMkO%2bMfwPIUs7Kyabqe9HVqe5KsQLLhcv1J9DVl42pjFi7VpKODFG4pS0ZLaZJkJvq/vSIFnVVp6KZ3%2bF2jIQe9DZloo/vE5yzx%2by2B/UMRCpQ7xLX0uMgXf0fr5wyKe8X9X2KLGptyZGVLk0xERrY6kUmxtnQN6lfeMXIfpa/EoJgMuQxEGQHuoISEtSLv72j90gRdY1URW0IZjH4b2k4LCysK96vWZgVF%2bzpJfV8BhoG4yh5B7RbKFfcr3mdlaYDbaP1MNSbHKIOZ312bISyuKn6jSl8TCCVMqH2VPYtk7pVnhWPWHAL0/%2b0HoKXkuDnzN9RW8FRX0EMACGuNkvIaksxeVJrUz7mEAPdSQmCMbJDbmBAN5SfNU5MyiMheSlwibkdf%2bQEQlNC6Us%2bhoE%2bQa4aDVjTbUDgm30brU%2byr1q%2btq2fr53er1pfd9VYAoOYD4QVdF0%2bwF3hqvaDpYv7tiP2TurriE5rYTwlhiyixP2yyo9pAkNoeUT5QvKC3IYu94JBcE8RZsUFuy4zQXKrnAkfXen6/lZIE9Vdorpdjf7D1tUqPBgBqKGiAoGkz1U6tPm%2bL%2b7eW683CSLhLR1WqeZprVrK1pfWHa48YAMo3XCyRAbbLYZk4xlCWRsa5hcmQ3YznXM28/9XVxmzhktpENdQDEtF04fDogSAD3s/g07WRlP6xUoFaNZ/beyutn0xC5OKDhNECJvlyW7leiU1L6ytuX56CxnOxqM77mNqpg8JhNLxANkDK4wMLpnRdfX3OrZj6eKGTQtZPUpKf/oU%2bKkqUMlfEvqViMgAn0HD2S1RmbEZrRbrwhutOesMANSikKO/I%2bUefLE%2bJsVa8JmkuSxt9ANrL4kTyE4VPXeUYXqBwjU7zr7bwkQaHAgNwEi1FH6Ii9VcwlKXDUHJcgDAcGUoSiBJlL7lGHaBJguacI5Jheaq9kpes6xpLb4EHlA2a%2buZ3VZ/ggfarAzErUXxMarpwDDLFofGCHp1nX8HFlGhaDWajuzYHrZUn0WZBrZWZuETPeuoyaWWoF0A1XYin/vFQ%2bTFv4UFCVpIKgpoMX5eTYdIYng4bK3JHN/m1VKRxAaQmv928xG3hBQ9ZTcR5SZzUWJ4iXWqthulyq9R/pQ2mK60wdjeSgrGI3f0UdrwehaOfRqFU/wzOJTyP84kycZvvxX0WhXe3RuHg3rdRX5ZBfeuIRxsEL%2bLZ3VaDxvJUiWWJfFKSwCD0X2JjlCUXN1Xl/7uyD6FrLY0fPQAaCE3zbozY5Eg2iAxcmtjfWpkhdbU3oaurSzIajVKToQWH4o5LH3yyGzs/%2bxIHDseh8EI5rvT24/y5AiTH/gHVKaGojHdH5TFPmahdkxICfezvUVSYj8uXL6PoQjFij8Rj5%2b4vwbwOHj0mNTY1w2g0SSyLZZInsUcIEDovpnEynKcu0NTF2shdvzKX0EzU1v1RXIUJ65PwzpZadHVfIeX7kJmdDQ9vX2ns5CkYa6cQtR2cXPDYuvXIys0D/3o669Fb91dcLdtM9Bp6a/fSvVrxLCfvNB5f/zSmObvCko/7Qh8pIzMTLKur%2b7LU2VqnJlU1DP5srgmoYGuqzBkN90/VNVXkiHJTQfcIr8tF9qdk1dFaj56ey%2bjoaIdPcCh%2bMckOU53mYsocZ5kcnTF5lqNQYNyUafjok09gNAGd3UZc6r4qiNt8b9enn4l3%2bF1b6sN9VT7M86FJ9vAOCkF7ezt6yEs6WxugFGDK2iC5wlCZfacaBp2Fn4%2bCB1wsMG88UBiMJSE9bZSk2O04Btuaqmjw/ThTcBa2M%2bfAngZrN9vJTKw8X1kBfj5h2kzk5ObC2NdLyl8RxO2cU6cwcfos8Q6/q%2b2rEvPmd07nn4HJJKGt6SLlgURl9lGXySmPqmHQVJE1QutXnaZ1f7zW/Z/gub9ZXvZKzZSpDdUF6CPzFZeUkKvPHTJoLRBTHF2Ehfd%2b841w94bSw2goiRXtb2JiMH7qdPHOcP1VHgxC0blzFAb9JLuQZwalPkgeUhpz6I5w6ksTHkAgqO5/VF6LJ5tIoJjnG4ppmiP37%2b7uRkjkcjxCCqpuP5wSE6bNQHrWKfR21aA1KxRtmUG40lmJrFNnMGn6zO9UnMELDIvkhIvOzg7UF6coFae8nyh7QHJRXW2V9ahtlQ24/4kHeOu6vTJFLjyUIoQtUFsmJ7c9X39NcWo3xIVVBSaQ%2b87z9kFjcyc6LvwRV/KD0JsfjI7zb8LQ0gkvX38RIvyuJYDMk/PL53v2CFm15adFbaBUh9LgPcTUGeoK0TCSMOCCQrvrw3W3pvQVFRutDlFz9gguFp9Gb5%2bElU%2bsxQMTbOFAWVzNB3yd5uKGn4%2bfgG07PkJfVxnas0NwpSBCUEd2MPo6i7H9vY/FO/yuti/zepB4Rq9egytX%2b1Fdko%2bagsNC9qByuTSpTwmD59WiqKX02E3u%2btTkK7s/iebih/fr1ZUfh8CAcD0S3n8cNUVUtbV0Y9nyFXjAZqJwWU5aNg4z8LNxNghbuQotbd3oOr8VfQVBMBZGo68wCsaCYLr3Gj27hIhVj4t3uQ/3ZR7Ma2n0cjQ0d6HuQhIS3ltlsddgXiGalO2yI8p3g5vfI2gqP2mOocaqs/9GzC90yzFmUqYeeRBiwZOK1A9W4dy%2bBeisi0d7Zy8VL18gJGoFXB9dBN%2bQpXhz%2b7swtF5Ge%2bW3qEn2RV1aCOpSg2Widk2SD9oq/ireeeud90Qf7hsStRwffPyF4NlZn4QLMQuR8v5yzvbmFacChsgDynRYTYXQf484DwxsfKQ4DLfVrQpvrUhB0rurUb7fG5fyglCf9waudJCbt7eiobEJLS2t6OupR/P5P1PSW4LKhCXI%2bnoRTn3rLYjbFccDxbPmc9vp3VrRh/u2t7eht7Mc9affRFdeMCpjfZD455UEun5gyW2xhS5/TUpxHNFOEVdRmvgP4thSd30HA5CItqoTSP3wSWR96In%2b4uXozg1E04klaMhah8a8TTDkPYeyo4HI3umOpG0LELfVE0e3eiH%2b7fmCuM33%2bFnWR%2b4oPRJAfZ4VfRuy1qOReHXnBkAi3jk7vaB/fw2tL9KG31ugPGBq5q9I%2bnA1D9xkBZimXfv/xrzzo9n2EgOgxVBHTSay97yAgy87oTMnHMaiaPRygssPxdUzQWhIWoyjW%2bZh3%2b88cOBlD8Ruchfvxm9xFMRtvhdLz/idI5s9UJ/gj6uUJ5gH8%2bojnl254Tj8ihMyv3geHdWZQrZFEuQwMPJCjcb8kjaH3YT76xkAJQSS3xAJsDTZaLnrS5UY2i9m4HzCDsS84IzMDxfhyhkC4VwkXSPoGoX09xYhZoM7Cvf6oZnivS0jDG15G2Cs/hDGmo%2bovVHca04LRtHX/oh50R1pOxaS0lEyj6JIAULWTm98%2bzsnFMVvFzJZ9jDb5kYlWf9R8QDr0fCAl67pAUoOqCuIJVdehAMb3aDfvgC1x4NwtTAChtQQHHjJHdm7vIHSaFH8FOd%2bhvq6KtTWXCSqRh21y/P3oJ0sjNIo5H7qg/0b3dGoDxE86hKCkPLOAsH7yJYFqDkdQzKH2V5TPEAeq37LyDxAfHNTc4B%2b2XA5wDIPZHz6FGI3OuHgpnnkzu5IISCSKMZZmfqkYKA4CpvW2cNlxv141OVezHe6SxC35878KTautYd0IUoozn0S35ovFOfQiH2ZeG50RtquJ2kZnKbsIiUNt2Gq5oBVymGKMaMxC0xTNj4tt77Mu75tlSdQkfkXUt4Dh1%2bbh8Ov0oBf8hD/7ycPuJQdhoKDfvByvA8%2brvcT/Qzerj8VxG2%2b5%2bl4L/IP%2bKInN4xyhbvoyzyY15HXGFQ3lJ3YLcC%2bhvuLr0bybnGKy4hmgday5IHzPpV5/0HMS5Sdl/7hwoAH1FaVjuyvXsD%2bDY40YC/zwL/d4Iaqg4H4yzYXuEy/Gx7u98B17t2Y53yvIG7zPX72xdvOqD68hHKGm%2bgr8/AinnNw8vNnhAzV%2bsO4f3%2bXPMZKQ0X2D0dlPaDJA28rYdA33AdQeQdYj6biBCT%2bKQKxLzqZQWAXTnpzPjassoXrzHuww9MZ%2bQtD8XWAJ/YScft9z7lwo2cbHrNFMrk%2b9zn8KnuTl3D94/8XgoZzcVT%2bpgzn%2buZPZn3y5/MdI5oCtcdf%2bKSXkhQfIQG9rep3AM1HUO0HEE5OdQUHcXwbJb8XHYUCDELcq574%2bPk52BniAlPwkzj/v8E4/qqXoMKng9AfvA6fBM/Frudmi3cPKZZn5eP/4I%2bavH3y3K%2b4vgYEqWXwYsjER3RU91eP8NxcGBQfUdcDqhfsEIuNYbzADAKHAg20vvAwlayrRDgcfNlVBmGLJ46TUocoocVsdsVBsjBTzGY3uuchnvE7/O6hTW6ib%2bI74ajJjxkU90OqP/mqLoR2KV%2bwR/6t0FCVo2sriTVviBoqTv6IBNUqcWZ5EEIy1%2bQliRJNjXRfLxUceks69lZgP80K0oGNnM3dpUOk9JFX5PgWMU5tvhe7yUPipBf7kpt0dKt3f96%2b1yQD8SJAJXXnR5VhobxJ3hRNbmquyLhb2cqz6ijeN3oHHzVHYRYyAOYPogMkDjcp3sEbpv38uayjOgOttFosiIlG6nue0nHKBRzbnOEPvqwQtQ%2b94oH4N6jM/dM8KW9vGJrOx4H7ykozL5m35rCVpM383TV8PiHFXztW/pYxCl6Qaz6DowmFzUpC7GUg%2bIibfLwtG/0tp%2bQjcdXpaBMfOBLIG9Jb6zPX9l7U%2b6M0PlA6f3AxzvzNF6f2%2bODUX3yQ/1dfnIv1R0lcoFSV7I%2bGzDVXWyvTW7kv8%2bDZh0%2bgyLyzhSyWqRyz61Vc/03F9ZUxJouxj9KHkTT14KO2VD6OrgI1Djv5lAiVyt82lSS/U38%2b8fmaooTg9qoTM3vrUh4uLsUPL%2bdH5BkLI2HICDXVU8lbkxKEaoVqUmkFSff4Wd/ZCNC7heXnav7rcl3qQ%2b1V6TOIVxDxfI54bycZ%2b0jWaZbJstFZwMqnaA5nWmnHPOpHYfnbmyLgZ7xIIrebW12UdNeXX%2b6687v69xaEZ6F8Oa6ejTDxWuFyfjh6TsvEbb7Hz1C2nOr%2b8O8867L78513XixK/AnJdhZjKE970GJst/ZUaFOp/poHnyNXr520aOmKVR6B4dvHuwScfX/b0rMoi4ztyQ/v7CvkBVK4xAub4Yif9VHtT%2b9e4j673llaQDyK3APC/%2bS9dMVjkWvW2gIYfvlekmx1yw9O/mbDr3V793wi2q9sefWO0jOpIt7WPLXux/ODI592XRx%2b0tk3rM9lcRTm%2bIZhrHMgsmMjgNoVYlVHSkqKosOSDES4xPuEqF6OomORsHFdglneYWCezNvVPzzLKyjymcfWr/0Jy75Uf2bMps2virPEsTFf6J585le3Rnk3/zD6O0W0Zy9aZq6wPJdEPO3iF1Y/NyAaTn6RcPQJw4xHQ0xTPBf3/dLRz/Tis4tMKI8ykptLPbKra0AwW97sARwOXXnhEiqjjDG7gkzjnPz67ect7mOezJtlsCyS2TgvMOJZ4G/C8jMXDozJyXvp6Cq/KDTK3CblBdq%2by6IfcSOL82AcfcMxx3uZkQZooqtkPy%2bACXYe/tLPbRykd7c8CpRFAxciRbx3c%2bznD6ZuJR%2bYisj6FdFI%2bSoQdjNmSBPn%2bkpTPAPAPGcTb0WGkWWybBpD7sLQqIk8JnpmPlW%2bOGLF6Cg/PyhKN9ZliWi7%2bIcLAeSC88gCnc7%2bUax4HwnupytbX5o2P0iy81gsA%2bDuh7G2Drjv4UlYvdwNebHB6D8XBfIIoISoOFImbpfJ9y7ql2HrCwswdpIdHrCxh727L2QwF0sOxJtlKLJYZh%2bPgUKjh4BYyGNz9pPHqLvbVYx9RL91v1qto7iW3co3TLiYk8%2by%2bSzcyTeCB8HKMwhiYDMXhrLysGfiQbv5YfyUGfilrT3u/sUkPDzRHkuDnfHWSwtwYKc/0r8JQua%2bYMR9thgf/H4R1qxwhf10B/zkwYl4aIId9Z2OyW4yAMyTebMMBQS%2bymMgbxDh4bPMh8dIz8RYCZiRARC6Uuwp6DwCI8Yolp/tRC6oCDRqlWerTPEMhCUA4wiAcZMdMN7egaxqj3semoS7CIx7H7bF/b%2bU6b6xtgKgux6chAdtSHG7qRhn54Bx9jOGAMAyVG/TgEBjCScAwqQFwVFiH8AjQB5z6IqVN6d88HJZeb%2bwaJFkVjzx2I9c/MIvKonOqAg2D4KSlKy87K5QQ2D8lJl4hAAYZzdNkI39NAHGuMlT6f4UhaaS0g7yM%2bU90YfAYx5anpPpyrJU8LUgOPlFwNkvrGHpylV3K7nL6qatv/LJx3X6mNd1k9yDRXHhHhDxqUvAcjXmVcsLaygWwbQFQYM9wN0f46fOMgOgBeJapH2XwWMeWg%2bgHGOWqcp1HBgLTcEiMX7FYx7nssQaZe/qlj/x%2bI0p/8bWZ5QEGCmUpyzr5EzokoB%2bC9dTLQFLL1CtNt5htrCwVsHvI/k98oqps4fwm7EgeJBMzVUNxX4X/wg8GhLloYTtTSyLfzBXt2Xz07r7pi8WnQnR/Zxtta5vqfysRUsHu7%2b4BsJmmiMesZ36vZYf4gnUZ7zDHMFDy5OJpkM4UR5yUpKfmhPUUOCx0piP8tjvtPG2emPrr2/Q/deuNlvfPzzahiuwOd5mxb/X%2bupA7SlhTZjhctMA2Ex3FjzM/BRPmOxOoeAVhCkEjiYfDErINGtJi0KjxdnBeUsirKPXrL4xECjhjVE6P89xpRQ6HG8YDgC2yhAPoMFPnOV%2b0wBMmOVqBoB5TiGaMNcHEU/%2bBulZOfj86xh4Ba8Usi3GZJRzQcQm7RR%2b3b/nfrteN9YpUHjAXP/weMX9TZaxb5kEqVAZAsAkRy8zADeUBKnPxDnzzADw9Gfj7I3Q1b9GTl4%2bsnJPIzktAy%2b8vg0zFS/Q5AITj5mMKFZv903zs3rq2fU3UP0Fy9NHYNSK/yH0KpWip9/S/S29gIqUIQDYuiwclARvxANsnRcM8gBbmhHcAqMxP/QxYXWeEWYODgE1TEWhRmOvoZJYnCRfEHIDU6LnEjn%2bqdMEiv/eORaJ71oeMLQYCsRkVx9SaPp1Wd/SCya7egse2iJoFoHMQM/RuP0cixCQ80AYl8hGmg3sbng2oMrPWgFijmuAqPdN1wLAEoTpNE0Nmrq4FrAohq4LAFED%2bCl8ZACYt9N3eOBgAJaZXGmxRDq4aavZ6/o5%2biyzVq6OLmLBQ%2bWvzzJcDwCzNdPhzU6FHDI2YgoMGDQDMG9LecMTPw8TiZDa7oou1w8AdbZWro5yAlxGCfD7PcCcDL2WDISBmAncbgwAngFmyjOA6v7MczhZw4%2bHxyrPBNR2V3S5EQ8IUzxABuD7QmBIMlRqAvNM4DT/hgHg2UNbA2jn%2b%2b8bhxICigeEKR4wPAD/DyM107/UMiH0AAAAAElFTkSuQmCC' /%3e%3c/svg%3e"},"path":"/author/john-doe/"}]}},{"node":{"title":"Wait for you","excerpt":"setsuna f seiei and marina","image":{"type":"image","mimeType":"image/jpeg","src":"/assets/static/steven-wong-LcemoNqHIxY-unsplash.4250cd3.b4d50c580975c45a79baac7db615d2ac.jpg","size":{"width":800,"height":1160},"sizes":"(max-width: 800px) 100vw, 800px","srcset":["/assets/static/steven-wong-LcemoNqHIxY-unsplash.1b91758.b4d50c580975c45a79baac7db615d2ac.jpg 480w","/assets/static/steven-wong-LcemoNqHIxY-unsplash.4250cd3.b4d50c580975c45a79baac7db615d2ac.jpg 800w"],"dataUri":"data:image/svg+xml,%3csvg fill='none' viewBox='0 0 800 1160' xmlns='http://www.w3.org/2000/svg' xmlns:xlink='http://www.w3.org/1999/xlink'%3e%3cdefs%3e%3cfilter id='__svg-blur-5679bea697d428f60ce152d102f610df'%3e%3cfeGaussianBlur in='SourceGraphic' stdDeviation='40'/%3e%3c/filter%3e%3c/defs%3e%3cimage x='0' y='0' filter='url(%23__svg-blur-5679bea697d428f60ce152d102f610df)' width='800' height='1160' xlink:href='data:image/jpeg%3bbase64%2c/9j/2wBDAAYEBQYFBAYGBQYHBwYIChAKCgkJChQODwwQFxQYGBcUFhYaHSUfGhsjHBYWICwgIyYnKSopGR8tMC0oMCUoKSj/2wBDAQcHBwoIChMKChMoGhYaKCgoKCgoKCgoKCgoKCgoKCgoKCgoKCgoKCgoKCgoKCgoKCgoKCgoKCgoKCgoKCgoKCj/wAARCABdAEADASIAAhEBAxEB/8QAHAAAAgIDAQEAAAAAAAAAAAAABAYFBwACAwgB/8QAMhAAAgECBAUCBQQBBQAAAAAAAQIDBBEABRIhBhMxQVFhcQcUIoGhFVKRsTIzYsHR8f/EABgBAAMBAQAAAAAAAAAAAAAAAAABAwIE/8QAIREAAgICAgIDAQAAAAAAAAAAAAECEQMhEjEEcRQiQfD/2gAMAwEAAhEDEQA/APVOMxmMwAZgWbMaOB2Sapijdeqs1iPtgljZSbE27DCVxjm5vHTmmeJHO7uoDsPTwMAH2u4mqoat4sveOqivszxlSvpe%2b/vgKPiSujzCOWc/QTZ1jBKkeo7HAkoRFUwsoVtgFP8Akfc43kMMarzamBCwvZmFyPOHxFY%2bZTmcWZwtLAkiqDb6gN/4ODsV9wpmccGfciIu1PONJYiw1dsWDhDMxHTZ5lUEnLmzKjR%2bmlplB/vCB8SuJp2rZMoopGihjAE7obF2Ivpv2ABF/OK9AA6ADCA9G09RDUx8ynmjlT9yMGH4wg8a00tXXtNEGaASIhYbXsp%2blfPcnFYpmE2XSK9JNLC%2boHVGxUA9r26i9uuL3yueLiXhikqW%2bn5iNXJA3R%2bht6g3wbGVrluU11S4qWSH5O1hIkmprk206COo/OCKjIqumWSpqzSNTFdStdhKG2soFrde%2bJuSqynIOIP0JqkGeqUVSQ6GAiAIUHV03PrfvgXi3iaJaGopMueOeqZDqkVgEiXoTqO19/PfG1sxVAGVwz5nV8qip5EiLBS5TZT5Pjzbri1aSJ4YFSSVpWA3dgBf7DFbfCnNTSquWTNC8M5LQPE2oKVXcE9%2bna%2bLOBBFwbjCkmnsaqtFCcXRvFxRmqyX1fMM2/g7j8EYiE1SSSiNGdYVDSsOiAmwvg74rZzFWcWzNQSrykjERaM/6hW9z%2bbfbC3wlX1EXEdKKMNKrtaoW11Kd9V/HXGekaW2Wjw9whBV5JTzPOHFVATJtvdiT%2bLgb/tw0ZnnVNwzkMUVLTSaY2WnREF2Zz2HqdzfBOWyURoliomSCNFsI1NjH9j/AOYTOLHizGupctlkIVGeXVqs7SW2It4HfziWJuUnZTIlGKKz4u4mmziaulYvBNFNE8TarmxBUi579/t6YH4YzCpeHMypeqqbRlUABsPrBYjwLi%2bHbOeDqDMKeCIF4mijESSLuwA3B9e/XzgvhvhukyWieKPVLJLvJK4%2bp/A9APGOuM667OdqxShz6TKxTmdKGsdIQ11kIdF9b3ANuww38J5jxdnVUtRQzU2X0sdmKPGXVh10MfJHgbdcQPEuU0cRmSlgjSOJDPMSLlmNgq39h0w68I5mWpsuyxImpVcuzT9BNbcBD5PfvYbYSXLbC%2bPRW%2bbcM5vDm8tNLTDXGdNww0gdt/bEjBDX5RGqinjeFQAWjUb28kb/AM4bKmZ6mplnk/zlYufvjjJr0nlkBuxOBQKSx3%2bjJwxxHlsHDFdmMLB5IgA8O2vWBYX9ycVjmdfPHmUdfUSaqvna2NtibG49rY7TryqxjVIIZGtqkg2DgG41L0Pvj5lGTT5/xTDSIGWEEspLAlV7sSOtlIHucXw41GEuX8iU1JNG%2bZfEGipxGIqaZ5L7gkKB7db44QfESklgZOTLDU2sitYqT74R%2bJYGTiGshkTQ0ehSoFt%2bWt9vUkn74ialAin0F8R4aNWPWcZsaylShoObU1DNzaqRVICn/oYfeDsxyvLoK6nzWaKOncrKhkBIJIs3QegwlVWmCmgjp41jCpC7IDoDNy1LM573JO5v6YHn570E6pUxTuIyCIhtc%2bvpjsxYUoU32RlO2PQmXmFGDqb7Fl2PscfZWZVupQerHHNfmC5QzRbdSYz/AD1tjvXRUkUQNQyy2tZSttR7gHoMc2rOwhq%2bczDlmenJvsFW/wDJOwwxfCnMqWnzSeBoo1eoUKJQCTcHZb9h1%2b%2bIN6WSphAEEdPCrkGw2cf7m8Yj9RljdKGYxJuqGJSCwBFtPcDbr12wTlFRoxOSirZA8e0NXmPGGeZnQ5ZmEeXrKA7zU5jIYCxsD1G19u2%2b2I7IqJZubJUUsEsBugaVbkm24Ha1sdP1mvy3Mpy09VMjs6vHNIW1MwP1b9773wBHVV0VNylqpEiRSVCL262w8MuKuRF/foZ8v5kgkE0IEQfSlgWLLa1zfv0w7RfDzPKyHQ3y1EvQFn1FR6BdvzhSyeGSkyaCCsZmmUmR9ZLHc6wpPa39k49F0k6VNLDPGbpKiup9CL4rlzTjFNaszGCbdnninzitpnDNIjSaQdTKGN/fBU/EdfVAJJVcgDUbxwruT74VqqeSKsqUUroSV1AK9AGIGBKqoneNysmgBegHXHDdlPj%2bQunr2STZhmGZs4ramSojEoQBj9Nzft0wZBNNAGDqSsR0tcdOw38XxpwZAJ8pDSkE/PJ0HhQf%2bcHiZos0zeEbxyuI2B/azISMdCipxSCeO41LtCrxBVgzrGrFpXT62IHS/nyT%2bMQle7BGsbgC%2bxxxEjPVyOTuzFvzjetPMjYHb6e2EtRozGPHRY0xlaudUTVGTct233xc3w4rmq%2bGYo5W1S0rtAT6DcfggfbFOSVLxGhaMIGljgBJF7ao1v8A1ix/hNUF3zOHSAoEUn3IYf0ox0eQuWJP0Zx6lR//2Q==' /%3e%3c/svg%3e"},"path":"/blog/wait-for-you/","timeToRead":0,"humanTime":"24 Dec 2019","datetime":"2019-12-24T00:00:00.000Z","category":{"id":"Love","title":"Love"},"author":[{"id":"author3","name":"John Doe","image":{"type":"image","mimeType":"image/png","src":"/assets/static/author3.6370538.fb3239b1ca9d78937c83c37a93ff5d81.png","size":{"width":60,"height":64},"sizes":"(max-width: 60px) 100vw, 60px","srcset":["/assets/static/author3.6370538.fb3239b1ca9d78937c83c37a93ff5d81.png 60w"],"dataUri":"data:image/svg+xml,%3csvg fill='none' viewBox='0 0 60 64' xmlns='http://www.w3.org/2000/svg' xmlns:xlink='http://www.w3.org/1999/xlink'%3e%3cdefs%3e%3cfilter id='__svg-blur-57d859a67fb611a9a25e06190a0f50a2'%3e%3cfeGaussianBlur in='SourceGraphic' stdDeviation='40'/%3e%3c/filter%3e%3c/defs%3e%3cimage x='0' y='0' filter='url(%23__svg-blur-57d859a67fb611a9a25e06190a0f50a2)' width='60' height='64' xlink:href='data:image/png%3bbase64%2ciVBORw0KGgoAAAANSUhEUgAAAEAAAABECAYAAAAx%2bDPIAAAACXBIWXMAAAsSAAALEgHS3X78AAAXCklEQVR42u1aCVhV17W%2bYN6Q9nvve/3ajG2TJjaKiqA4M8ggaJRJkEEZHRKN0Ze0GdrGmJhEY9MkvprWjJrBJDWmqUFxAmW4gCCTiAgqMzJzmREUuZfzv7X2OedyuGCigrb9vt7vW5zNOWevtde/hr32Plun%2b9fvX79b9mssz9N1Fe8WbUN5hq65LNWquSxFIb11c1mytXwV/yv3U3WGipO6KgNkHpX5/1xKG8rTxbWpKk%2bnUfSOtuKDVtfLo/XCfquWsqQ7qO8Y0b88TdxvKYnTGSpz/zEVby4/MdAuS7FuKU0YMwSciswfkIXvIXqI3hlHwBDpxzWXpz5M/99PPH5sqMj6z2H5lyWPISAEiM2lSQLgfwyLV2SxwgNuXpo0ZgCU9LvoWQAp%2bQ4pcJyoiMhAZGyvTIVK9H8/UQdRDdEZomPUZyf1XU9gTWuqLrxjAAi9tfCSkqMkO%2bMfwPIUs7Kyabqe9HVqe5KsQLLhcv1J9DVl42pjFi7VpKODFG4pS0ZLaZJkJvq/vSIFnVVp6KZ3%2bF2jIQe9DZloo/vE5yzx%2by2B/UMRCpQ7xLX0uMgXf0fr5wyKe8X9X2KLGptyZGVLk0xERrY6kUmxtnQN6lfeMXIfpa/EoJgMuQxEGQHuoISEtSLv72j90gRdY1URW0IZjH4b2k4LCysK96vWZgVF%2bzpJfV8BhoG4yh5B7RbKFfcr3mdlaYDbaP1MNSbHKIOZ312bISyuKn6jSl8TCCVMqH2VPYtk7pVnhWPWHAL0/%2b0HoKXkuDnzN9RW8FRX0EMACGuNkvIaksxeVJrUz7mEAPdSQmCMbJDbmBAN5SfNU5MyiMheSlwibkdf%2bQEQlNC6Us%2bhoE%2bQa4aDVjTbUDgm30brU%2byr1q%2btq2fr53er1pfd9VYAoOYD4QVdF0%2bwF3hqvaDpYv7tiP2TurriE5rYTwlhiyixP2yyo9pAkNoeUT5QvKC3IYu94JBcE8RZsUFuy4zQXKrnAkfXen6/lZIE9Vdorpdjf7D1tUqPBgBqKGiAoGkz1U6tPm%2bL%2b7eW683CSLhLR1WqeZprVrK1pfWHa48YAMo3XCyRAbbLYZk4xlCWRsa5hcmQ3YznXM28/9XVxmzhktpENdQDEtF04fDogSAD3s/g07WRlP6xUoFaNZ/beyutn0xC5OKDhNECJvlyW7leiU1L6ytuX56CxnOxqM77mNqpg8JhNLxANkDK4wMLpnRdfX3OrZj6eKGTQtZPUpKf/oU%2bKkqUMlfEvqViMgAn0HD2S1RmbEZrRbrwhutOesMANSikKO/I%2bUefLE%2bJsVa8JmkuSxt9ANrL4kTyE4VPXeUYXqBwjU7zr7bwkQaHAgNwEi1FH6Ii9VcwlKXDUHJcgDAcGUoSiBJlL7lGHaBJguacI5Jheaq9kpes6xpLb4EHlA2a%2buZ3VZ/ggfarAzErUXxMarpwDDLFofGCHp1nX8HFlGhaDWajuzYHrZUn0WZBrZWZuETPeuoyaWWoF0A1XYin/vFQ%2bTFv4UFCVpIKgpoMX5eTYdIYng4bK3JHN/m1VKRxAaQmv928xG3hBQ9ZTcR5SZzUWJ4iXWqthulyq9R/pQ2mK60wdjeSgrGI3f0UdrwehaOfRqFU/wzOJTyP84kycZvvxX0WhXe3RuHg3rdRX5ZBfeuIRxsEL%2bLZ3VaDxvJUiWWJfFKSwCD0X2JjlCUXN1Xl/7uyD6FrLY0fPQAaCE3zbozY5Eg2iAxcmtjfWpkhdbU3oaurSzIajVKToQWH4o5LH3yyGzs/%2bxIHDseh8EI5rvT24/y5AiTH/gHVKaGojHdH5TFPmahdkxICfezvUVSYj8uXL6PoQjFij8Rj5%2b4vwbwOHj0mNTY1w2g0SSyLZZInsUcIEDovpnEynKcu0NTF2shdvzKX0EzU1v1RXIUJ65PwzpZadHVfIeX7kJmdDQ9vX2ns5CkYa6cQtR2cXPDYuvXIys0D/3o669Fb91dcLdtM9Bp6a/fSvVrxLCfvNB5f/zSmObvCko/7Qh8pIzMTLKur%2b7LU2VqnJlU1DP5srgmoYGuqzBkN90/VNVXkiHJTQfcIr8tF9qdk1dFaj56ey%2bjoaIdPcCh%2bMckOU53mYsocZ5kcnTF5lqNQYNyUafjok09gNAGd3UZc6r4qiNt8b9enn4l3%2bF1b6sN9VT7M86FJ9vAOCkF7ezt6yEs6WxugFGDK2iC5wlCZfacaBp2Fn4%2bCB1wsMG88UBiMJSE9bZSk2O04Btuaqmjw/ThTcBa2M%2bfAngZrN9vJTKw8X1kBfj5h2kzk5ObC2NdLyl8RxO2cU6cwcfos8Q6/q%2b2rEvPmd07nn4HJJKGt6SLlgURl9lGXySmPqmHQVJE1QutXnaZ1f7zW/Z/gub9ZXvZKzZSpDdUF6CPzFZeUkKvPHTJoLRBTHF2Ehfd%2b841w94bSw2goiRXtb2JiMH7qdPHOcP1VHgxC0blzFAb9JLuQZwalPkgeUhpz6I5w6ksTHkAgqO5/VF6LJ5tIoJjnG4ppmiP37%2b7uRkjkcjxCCqpuP5wSE6bNQHrWKfR21aA1KxRtmUG40lmJrFNnMGn6zO9UnMELDIvkhIvOzg7UF6coFae8nyh7QHJRXW2V9ahtlQ24/4kHeOu6vTJFLjyUIoQtUFsmJ7c9X39NcWo3xIVVBSaQ%2b87z9kFjcyc6LvwRV/KD0JsfjI7zb8LQ0gkvX38RIvyuJYDMk/PL53v2CFm15adFbaBUh9LgPcTUGeoK0TCSMOCCQrvrw3W3pvQVFRutDlFz9gguFp9Gb5%2bElU%2bsxQMTbOFAWVzNB3yd5uKGn4%2bfgG07PkJfVxnas0NwpSBCUEd2MPo6i7H9vY/FO/yuti/zepB4Rq9egytX%2b1Fdko%2bagsNC9qByuTSpTwmD59WiqKX02E3u%2btTkK7s/iebih/fr1ZUfh8CAcD0S3n8cNUVUtbV0Y9nyFXjAZqJwWU5aNg4z8LNxNghbuQotbd3oOr8VfQVBMBZGo68wCsaCYLr3Gj27hIhVj4t3uQ/3ZR7Ma2n0cjQ0d6HuQhIS3ltlsddgXiGalO2yI8p3g5vfI2gqP2mOocaqs/9GzC90yzFmUqYeeRBiwZOK1A9W4dy%2bBeisi0d7Zy8VL18gJGoFXB9dBN%2bQpXhz%2b7swtF5Ge%2bW3qEn2RV1aCOpSg2Widk2SD9oq/ireeeud90Qf7hsStRwffPyF4NlZn4QLMQuR8v5yzvbmFacChsgDynRYTYXQf484DwxsfKQ4DLfVrQpvrUhB0rurUb7fG5fyglCf9waudJCbt7eiobEJLS2t6OupR/P5P1PSW4LKhCXI%2bnoRTn3rLYjbFccDxbPmc9vp3VrRh/u2t7eht7Mc9affRFdeMCpjfZD455UEun5gyW2xhS5/TUpxHNFOEVdRmvgP4thSd30HA5CItqoTSP3wSWR96In%2b4uXozg1E04klaMhah8a8TTDkPYeyo4HI3umOpG0LELfVE0e3eiH%2b7fmCuM33%2bFnWR%2b4oPRJAfZ4VfRuy1qOReHXnBkAi3jk7vaB/fw2tL9KG31ugPGBq5q9I%2bnA1D9xkBZimXfv/xrzzo9n2EgOgxVBHTSay97yAgy87oTMnHMaiaPRygssPxdUzQWhIWoyjW%2bZh3%2b88cOBlD8Ruchfvxm9xFMRtvhdLz/idI5s9UJ/gj6uUJ5gH8%2bojnl254Tj8ihMyv3geHdWZQrZFEuQwMPJCjcb8kjaH3YT76xkAJQSS3xAJsDTZaLnrS5UY2i9m4HzCDsS84IzMDxfhyhkC4VwkXSPoGoX09xYhZoM7Cvf6oZnivS0jDG15G2Cs/hDGmo%2bovVHca04LRtHX/oh50R1pOxaS0lEyj6JIAULWTm98%2bzsnFMVvFzJZ9jDb5kYlWf9R8QDr0fCAl67pAUoOqCuIJVdehAMb3aDfvgC1x4NwtTAChtQQHHjJHdm7vIHSaFH8FOd%2bhvq6KtTWXCSqRh21y/P3oJ0sjNIo5H7qg/0b3dGoDxE86hKCkPLOAsH7yJYFqDkdQzKH2V5TPEAeq37LyDxAfHNTc4B%2b2XA5wDIPZHz6FGI3OuHgpnnkzu5IISCSKMZZmfqkYKA4CpvW2cNlxv141OVezHe6SxC35878KTautYd0IUoozn0S35ovFOfQiH2ZeG50RtquJ2kZnKbsIiUNt2Gq5oBVymGKMaMxC0xTNj4tt77Mu75tlSdQkfkXUt4Dh1%2bbh8Ov0oBf8hD/7ycPuJQdhoKDfvByvA8%2brvcT/Qzerj8VxG2%2b5%2bl4L/IP%2bKInN4xyhbvoyzyY15HXGFQ3lJ3YLcC%2bhvuLr0bybnGKy4hmgday5IHzPpV5/0HMS5Sdl/7hwoAH1FaVjuyvXsD%2bDY40YC/zwL/d4Iaqg4H4yzYXuEy/Gx7u98B17t2Y53yvIG7zPX72xdvOqD68hHKGm%2bgr8/AinnNw8vNnhAzV%2bsO4f3%2bXPMZKQ0X2D0dlPaDJA28rYdA33AdQeQdYj6biBCT%2bKQKxLzqZQWAXTnpzPjassoXrzHuww9MZ%2bQtD8XWAJ/YScft9z7lwo2cbHrNFMrk%2b9zn8KnuTl3D94/8XgoZzcVT%2bpgzn%2buZPZn3y5/MdI5oCtcdf%2bKSXkhQfIQG9rep3AM1HUO0HEE5OdQUHcXwbJb8XHYUCDELcq574%2bPk52BniAlPwkzj/v8E4/qqXoMKng9AfvA6fBM/Frudmi3cPKZZn5eP/4I%2bavH3y3K%2b4vgYEqWXwYsjER3RU91eP8NxcGBQfUdcDqhfsEIuNYbzADAKHAg20vvAwlayrRDgcfNlVBmGLJ46TUocoocVsdsVBsjBTzGY3uuchnvE7/O6hTW6ib%2bI74ajJjxkU90OqP/mqLoR2KV%2bwR/6t0FCVo2sriTVviBoqTv6IBNUqcWZ5EEIy1%2bQliRJNjXRfLxUceks69lZgP80K0oGNnM3dpUOk9JFX5PgWMU5tvhe7yUPipBf7kpt0dKt3f96%2b1yQD8SJAJXXnR5VhobxJ3hRNbmquyLhb2cqz6ijeN3oHHzVHYRYyAOYPogMkDjcp3sEbpv38uayjOgOttFosiIlG6nue0nHKBRzbnOEPvqwQtQ%2b94oH4N6jM/dM8KW9vGJrOx4H7ykozL5m35rCVpM383TV8PiHFXztW/pYxCl6Qaz6DowmFzUpC7GUg%2bIibfLwtG/0tp%2bQjcdXpaBMfOBLIG9Jb6zPX9l7U%2b6M0PlA6f3AxzvzNF6f2%2bODUX3yQ/1dfnIv1R0lcoFSV7I%2bGzDVXWyvTW7kv8%2bDZh0%2bgyLyzhSyWqRyz61Vc/03F9ZUxJouxj9KHkTT14KO2VD6OrgI1Djv5lAiVyt82lSS/U38%2b8fmaooTg9qoTM3vrUh4uLsUPL%2bdH5BkLI2HICDXVU8lbkxKEaoVqUmkFSff4Wd/ZCNC7heXnav7rcl3qQ%2b1V6TOIVxDxfI54bycZ%2b0jWaZbJstFZwMqnaA5nWmnHPOpHYfnbmyLgZ7xIIrebW12UdNeXX%2b6687v69xaEZ6F8Oa6ejTDxWuFyfjh6TsvEbb7Hz1C2nOr%2b8O8867L78513XixK/AnJdhZjKE970GJst/ZUaFOp/poHnyNXr520aOmKVR6B4dvHuwScfX/b0rMoi4ztyQ/v7CvkBVK4xAub4Yif9VHtT%2b9e4j673llaQDyK3APC/%2bS9dMVjkWvW2gIYfvlekmx1yw9O/mbDr3V793wi2q9sefWO0jOpIt7WPLXux/ODI592XRx%2b0tk3rM9lcRTm%2bIZhrHMgsmMjgNoVYlVHSkqKosOSDES4xPuEqF6OomORsHFdglneYWCezNvVPzzLKyjymcfWr/0Jy75Uf2bMps2virPEsTFf6J585le3Rnk3/zD6O0W0Zy9aZq6wPJdEPO3iF1Y/NyAaTn6RcPQJw4xHQ0xTPBf3/dLRz/Tis4tMKI8ykptLPbKra0AwW97sARwOXXnhEiqjjDG7gkzjnPz67ect7mOezJtlsCyS2TgvMOJZ4G/C8jMXDozJyXvp6Cq/KDTK3CblBdq%2by6IfcSOL82AcfcMxx3uZkQZooqtkPy%2bACXYe/tLPbRykd7c8CpRFAxciRbx3c%2bznD6ZuJR%2bYisj6FdFI%2bSoQdjNmSBPn%2bkpTPAPAPGcTb0WGkWWybBpD7sLQqIk8JnpmPlW%2bOGLF6Cg/PyhKN9ZliWi7%2bIcLAeSC88gCnc7%2bUax4HwnupytbX5o2P0iy81gsA%2bDuh7G2Drjv4UlYvdwNebHB6D8XBfIIoISoOFImbpfJ9y7ql2HrCwswdpIdHrCxh727L2QwF0sOxJtlKLJYZh%2bPgUKjh4BYyGNz9pPHqLvbVYx9RL91v1qto7iW3co3TLiYk8%2by%2bSzcyTeCB8HKMwhiYDMXhrLysGfiQbv5YfyUGfilrT3u/sUkPDzRHkuDnfHWSwtwYKc/0r8JQua%2bYMR9thgf/H4R1qxwhf10B/zkwYl4aIId9Z2OyW4yAMyTebMMBQS%2bymMgbxDh4bPMh8dIz8RYCZiRARC6Uuwp6DwCI8Yolp/tRC6oCDRqlWerTPEMhCUA4wiAcZMdMN7egaxqj3semoS7CIx7H7bF/b%2bU6b6xtgKgux6chAdtSHG7qRhn54Bx9jOGAMAyVG/TgEBjCScAwqQFwVFiH8AjQB5z6IqVN6d88HJZeb%2bwaJFkVjzx2I9c/MIvKonOqAg2D4KSlKy87K5QQ2D8lJl4hAAYZzdNkI39NAHGuMlT6f4UhaaS0g7yM%2bU90YfAYx5anpPpyrJU8LUgOPlFwNkvrGHpylV3K7nL6qatv/LJx3X6mNd1k9yDRXHhHhDxqUvAcjXmVcsLaygWwbQFQYM9wN0f46fOMgOgBeJapH2XwWMeWg%2bgHGOWqcp1HBgLTcEiMX7FYx7nssQaZe/qlj/x%2bI0p/8bWZ5QEGCmUpyzr5EzokoB%2bC9dTLQFLL1CtNt5htrCwVsHvI/k98oqps4fwm7EgeJBMzVUNxX4X/wg8GhLloYTtTSyLfzBXt2Xz07r7pi8WnQnR/Zxtta5vqfysRUsHu7%2b4BsJmmiMesZ36vZYf4gnUZ7zDHMFDy5OJpkM4UR5yUpKfmhPUUOCx0piP8tjvtPG2emPrr2/Q/deuNlvfPzzahiuwOd5mxb/X%2bupA7SlhTZjhctMA2Ex3FjzM/BRPmOxOoeAVhCkEjiYfDErINGtJi0KjxdnBeUsirKPXrL4xECjhjVE6P89xpRQ6HG8YDgC2yhAPoMFPnOV%2b0wBMmOVqBoB5TiGaMNcHEU/%2bBulZOfj86xh4Ba8Usi3GZJRzQcQm7RR%2b3b/nfrteN9YpUHjAXP/weMX9TZaxb5kEqVAZAsAkRy8zADeUBKnPxDnzzADw9Gfj7I3Q1b9GTl4%2bsnJPIzktAy%2b8vg0zFS/Q5AITj5mMKFZv903zs3rq2fU3UP0Fy9NHYNSK/yH0KpWip9/S/S29gIqUIQDYuiwclARvxANsnRcM8gBbmhHcAqMxP/QxYXWeEWYODgE1TEWhRmOvoZJYnCRfEHIDU6LnEjn%2bqdMEiv/eORaJ71oeMLQYCsRkVx9SaPp1Wd/SCya7egse2iJoFoHMQM/RuP0cixCQ80AYl8hGmg3sbng2oMrPWgFijmuAqPdN1wLAEoTpNE0Nmrq4FrAohq4LAFED%2bCl8ZACYt9N3eOBgAJaZXGmxRDq4aavZ6/o5%2biyzVq6OLmLBQ%2bWvzzJcDwCzNdPhzU6FHDI2YgoMGDQDMG9LecMTPw8TiZDa7oou1w8AdbZWro5yAlxGCfD7PcCcDL2WDISBmAncbgwAngFmyjOA6v7MczhZw4%2bHxyrPBNR2V3S5EQ8IUzxABuD7QmBIMlRqAvNM4DT/hgHg2UNbA2jn%2b%2b8bhxICigeEKR4wPAD/DyM107/UMiH0AAAAAElFTkSuQmCC' /%3e%3c/svg%3e"},"path":"/author/john-doe/"}]}}]}}},"context":{}}