{"hash":"afa08b8c42b31d01d2895f242ba1509880418f88","data":{"category":{"title":"Love","path":"/category/love/","belongsTo":{"totalCount":3,"pageInfo":{"totalPages":2,"currentPage":2},"edges":[{"node":{"title":"Tomorow","excerpt":"Setsuna f seiei and Marina Ismail","image":{"type":"image","mimeType":"image/jpeg","src":"/assets/static/lukasz-szmigiel-jFCViYFYcus-unsplash.4250cd3.f571a5852cdc8af5269c712e81989f18.jpg","size":{"width":800,"height":524},"sizes":"(max-width: 800px) 100vw, 800px","srcset":["/assets/static/lukasz-szmigiel-jFCViYFYcus-unsplash.1b91758.f571a5852cdc8af5269c712e81989f18.jpg 480w","/assets/static/lukasz-szmigiel-jFCViYFYcus-unsplash.4250cd3.f571a5852cdc8af5269c712e81989f18.jpg 800w"],"dataUri":"data:image/svg+xml,%3csvg fill='none' viewBox='0 0 800 524' xmlns='http://www.w3.org/2000/svg' xmlns:xlink='http://www.w3.org/1999/xlink'%3e%3cdefs%3e%3cfilter id='__svg-blur-760792e485e12da7eed51b4365ff2306'%3e%3cfeGaussianBlur in='SourceGraphic' stdDeviation='40'/%3e%3c/filter%3e%3c/defs%3e%3cimage x='0' y='0' filter='url(%23__svg-blur-760792e485e12da7eed51b4365ff2306)' width='800' height='524' xlink:href='data:image/jpeg%3bbase64%2c/9j/2wBDAAYEBQYFBAYGBQYHBwYIChAKCgkJChQODwwQFxQYGBcUFhYaHSUfGhsjHBYWICwgIyYnKSopGR8tMC0oMCUoKSj/2wBDAQcHBwoIChMKChMoGhYaKCgoKCgoKCgoKCgoKCgoKCgoKCgoKCgoKCgoKCgoKCgoKCgoKCgoKCgoKCgoKCgoKCj/wAARCAAqAEADASIAAhEBAxEB/8QAGgAAAgMBAQAAAAAAAAAAAAAABgcDBQgEAv/EADEQAAIBAwMCBQQBAgcAAAAAAAECAwQFEQAGIRIxBxMiQVEUMmFxkQgjFjM0QlKh8P/EABoBAAIDAQEAAAAAAAAAAAAAAAEDAgQFAAb/xAAmEQACAgEDAwQDAQAAAAAAAAABAgADEQQSIRMxQVFhofAFFMHR/9oADAMBAAIRAxEAPwDknrai37YtljRM3CqYVU6jGY1b/JRvj05c5/5D41yUyUlsqK%2b4zRMqRIyv1gLJIygda8jOSelQPbq0wbrT7WrzJbL3DcLzPCqqtQ/TBLAo/wBqyR%2bsr24YkfGiDbtDtKqq4aZbHb2ZMvD5ytMQwPVnLE855/eue5WbbnmKFZCZ8Re2jdtRtbbuGkNXVyv1rRyEyK07klukHlQGbGRjAUa8eJlziv8AuSJLZXdawQxxqsLY6ZUyCOTyCSSOffQx4wU0tr8Qr%2bLZS1UjQzJVebFGfLp0eLKqB9uOWOf%2buDmgpLbeGpKyuiipo6aiMZqZGVSAHIw6qOCoHxpb7W78R6k%2bIf7Ott53Z59qmuENHBS9Bk8/qDhWbp9K4%2bcfjtzp83m5RW6BLfDE0xVcKGyOFHb89tZot%2b7qiCqZ4XmLOqRSOy9MjxYBGe4C4CHjA7acm1902/cpp6%2b6saSqjkWSCVXIDuoKlWPYng%2bnjOdRbIXAPaSJ9ZaXC/3qjoaOuhgAjqGIWMJgg4J9/wAKc57aOZ5FlpD9UUiZYuqUk8ICPVz%2bNJrdXiZQ1d4s1rgo62SV5/PRoD0ozYYAZx1EZ7rjvwdXM8133FuaOExNSWeroZ4JPPZUmAePlhE3qJDdPGNQRXwQ3z7QMV8Qa8NLxS1O%2bdxVV0MQpI4neEzACNVDrkk44xjOdFey4aTc26qq77ci8mw0yfSxz9JVZXHLsgPtzgfz76ArPeLfZr3DR1tgW20c0bQTxVTuzTRYIcjsASPVyP1jjWhLN9AlgpE2%2bsAtwhX6YQgBOnHGP/fvQr5YuTCw42xT/wBStxgt22LfRLGzmpqA8iRv0s6IuOSO45A5%2bNLTa%2b7LxV08u2FgpUtVVSyRtP5Z82KNIySqlMdRweM9s5z7au/6lIDU3WEySP5sEKRupbIHUWII%2bD%2bNA23rzDbLTaWoVEt1SsefoZ%2bjrRVIK5P6Xj351pdPfSCQPv0SsDtfAMn3teqK6UVmittsehu0Fs%2bkqIYUJVzlegq3dgUVjz27aNvAG222/wBLXNXxSmpo3BkR52RQp5wUGCeerkn3Ggi%2b7nov8QefBEGjWCGHzQMIreWpkGO/3ludVMW6avb264a%2bHBo6yMwzxliqzxkjhiOfcc663Q7KN%2befSOD57zXNDQ2%2bhr2WmpoaOJB09UcIQuzDOQ2MkfkHVfcpLTtSnrbmfLipwBNLMQfMHsBkcsCf3ydDO1fE/b9VbKShgp6q2umI1gZFaPjjoVi2D/AOpvEC3W3c9iajqKi7W9Mr6oFXoJB6gCjEg8nPBGsx9ZRSwFjAGH9a2wEIO8A5PO32aG5SwQVlSUarrDGjYjCKRHTrnsWIyw59%2bRnm68Ab/cUttTNdWansUjxrSsykAzMPV0%2b3Rjv7ZxjnOlzaqmemuM6080sShgwEblRnHfj31oqzwxPtFY3jRkFvyFKggfce3750qlxZaRjAxmOtXp1594CeJG1Ky%2b77ngiKRWmtoS7VgUyiOdSBhgOwIK4x8H86Xw8M7jt63PcLnRUtxmNQKWlhiYyJ6/T57YwSQTwv4ye2NGfitcq6h8I6Wpoqypp6krGplilZHI6jxkHOONFNdV1JtG1XNRMXlemaRus5clo8k/Pc/wAnWyLWNYGZQVQDmIansht19rKa49Bnp5jF5I/uesAc4Hf20N3%2b31dzubvWU9TE0kzpmWIocIuSMEew6ePYEfOtmbPoaSnoKypp6WCKplrp/MlSMK7/ANxu5HJ0p/G1Fa/XXqVT5dmjdMj7WaowxHwSAAT74Gm678gz0FSOcfMtKg6gXxmJ63zNa9x08dcsbWq4IrOkoJQ%2bkZB9859xyM501Nvbwhlpam1zVQqKSifFFNUkmcowBCEj7unkZxzxpXbh/wBbQD2E3A%2bPSdR7SZluTlSQTnsdeN1T9ejew5x/Zu6fTKlp57f5P//Z' /%3e%3c/svg%3e"},"path":"/blog/tomorow/","timeToRead":0,"humanTime":"05 Feb 2019","datetime":"2019-02-05T00:00:00.000Z","category":{"id":"Love","title":"Love"},"author":[{"id":"author1","name":"Troes retardat","image":{"type":"image","mimeType":"image/png","src":"/assets/static/author1.6370538.8dd1692a41872507330a722c7ec399b8.png","size":{"width":60,"height":64},"sizes":"(max-width: 60px) 100vw, 60px","srcset":["/assets/static/author1.6370538.8dd1692a41872507330a722c7ec399b8.png 60w"],"dataUri":"data:image/svg+xml,%3csvg fill='none' viewBox='0 0 60 64' xmlns='http://www.w3.org/2000/svg' xmlns:xlink='http://www.w3.org/1999/xlink'%3e%3cdefs%3e%3cfilter id='__svg-blur-bf8a5947007a748517a2d5aac6781180'%3e%3cfeGaussianBlur in='SourceGraphic' stdDeviation='40'/%3e%3c/filter%3e%3c/defs%3e%3cimage x='0' y='0' filter='url(%23__svg-blur-bf8a5947007a748517a2d5aac6781180)' width='60' height='64' xlink:href='data:image/png%3bbase64%2ciVBORw0KGgoAAAANSUhEUgAAAEAAAABECAYAAAAx%2bDPIAAAACXBIWXMAAAsSAAALEgHS3X78AAATbUlEQVR42t1aCVhVVdc%2bYF/9ZakpyOyYqYBi1peGllMok%2bKAqcyoKA5MMjikyaemOTAJmvVnX8NnT5Ym4GzOYmkOjAqKI%2bBYoCACd9rrX2vvcy4XtC9sAPrP86xn73vOPnuv9a53rb32vVeS/sLLtsvLkr2FCe/bW7Y3ptauQ0crO2vL1XZWFvkoahQNSgHei7Pr0KGD4Vh787bS3/rq1e4ZYbyVuTDextrJzsq8rLe1BfSyMgd7SzMu1Kd7%2bKzczsbKTYBgZiz9f7jsrK2MhOc7dEQDK8hYbFUoOhQmC/VV8rNqOxublwzf/fsaj4xGT7YQxljGOAgvq%2byF9xXjGfXtZWD4GGvL92QWtPh7A2BjUxv71hZxMs01HAAyXLT6Pj0TYyxSOAAWpn/PMOjZzU6f/NCbT8ntWDIOvaqVvQ4GAIB8T9tbMGCi4bv2Fu2lnj0d/j60Vy40TE/hToGfGiELMuQ41xoaLwOgFc8sjhvOR3PYduoqM8pasuvYuTlT3kre/roRAwT1O3YyQU8uQsNOoZH3H0P/%2bmFQTiDgOyF2nbq0ojl6t%2bLGGwlALJonCIpStp27SvZm7eS4t/JEg%2b4QrbnYkJiz3tbm0Mta9rwcCvQZ7zMHHEMi54ISnGO6wY4i5kUQmtVl37kb7vn/I3V/ZYg%2bcaGSIb244eZktNrWwkzb%2bUUT1rF1O%2bjS1oR1bWcK3c3MyOO8xc8MnwM%2bZ91MTTEXYEK0UeoDiy12XXs8XQcEg1BrBnu9ZZ2YRyV9hcfNoYdZey0Z/WpnK%2bbvYstWhPSDr1cPheOb3CAndTTkpY/h7fFN7vz%2bwimvshGvdeFgvGRiqiPwiBEIwp7210DJM0Yi2fZoBsZ36lyXnjY2L6NXqxzQeDRC69jDBtbOHcAK944D3Xk/gCsBAIX%2bABdRLvjVCn2%2bhHI5AO79NAlS1zox9ze6Qsc2JgyTo6qPjSWCYBknb48tbHv2pTWbAQBW5jz%2b7U1aGsnU39WngwV0amOinjbaHkqOvMPIaJbvC1VZ3lCZ6QUPM73hIfarDIQ%2b0316rsr14UA8OOvN3p/dj5jAMFcwCilMhq8ZAt5cQkChvmufDpZkvHaOdx%2bmy/dD8YXKs17cyOpsb6jJ8dG3hkL3uMh9eocDcSWAfbpkEHQzba%2bhULC3ttzCWWDWxhgPVpJt1%2b5NZ7htxy682nN4UWz3Dh0sD3YzaQ/vDOmuqcr2AXWeDyOvGhpY3/BfA4L6VTIr4GogS54/gCGwtJPU4JrdlLNCL9NWTX7Y4VR06GTTz86Sb2csO3U0w7hmlZm/7vGGAGEACGMFfmzG2F6al3D3eKWzdbRcEzzVpMbbdu6OSogDS59OVqu6tDWFdQsGajB%2b0Xgv9nuNrw8C5QeG4XR1v6fm9ZesoYe52XYOQNtnjbDQalLv8xbgOyM0/qdxb71MCmtRWEMp31AQMCdQMtUlRDmCTSuTYl83h1Zy/jFqyuTHF3d6rZtZpxdNH3yzZhhPWuR9QwCeFIzHvYv5gOnO%2b7LiQ%2bOhXzdrZt7StHszAEDEv8Xzpv0G9uwAtzMmgOacLyPKKsY8zGo4EPUNN3yXAKBcQDuL9/Ce0FJ6cbgMgHET1gAWPP6fl1q7T3a3ozjVkaLYcqX5NoZFD7UPG7ANKv0qGUAqjnAngRp8BgV%2bHARMrroo71fgOamVp6EOjX7dyZwv9bIR%2b/9T0vMeS2a8TgrriAEnv3GF6Cl2MH9aL/gueTDf0%2bGCv77o%2bTVGKAURGUv3t28YCu8G94I5gbZw9D/OTItzEwDz/PsCgj6ef%2b%2bIOtxFXRr1%2biUzWqrJ8ZKellrL8WfUZ%2bnMfzIqZdHbbMvawfD5BwNg05o3YaZXdwj36wmnt7pxEMi4%2bh5XgKBn5PXc9FEcwOkTXobPVw6EL1cNhK/i3uLbIT5n8wL64qHg6X608rNSa2NVziSuU6Nd2pyxvN37sYscf8YvJM0bVELURyV1mKxEbV9I5awXfLLMESa5d4Y1c1%2bDHDROobi%2b%2bpPl/E4PWLvwdfAa2RnWL%2b4H905N5HPQXBj7xA5GIfVtwogKDDwzWvnbeKcWhjo12vUwO4B7/96ZoC6qPN9Tt49P1lZm%2buDez5OVvopT5yEY1ydD/i4PiEMA0tYPfazxFOt7PnkbVkW/Cqe3CLbw3JFZp4zm8987NUVXmRWQWZUTyHeCqmz/xk2ElVlTJDg3RBKL%2b%2b2BkilQfGS69mGWLymIygoDyQBS/uw2dyg9id68EvirIUAtMQiKpuBBKBBUlAQRBIx7g5xB471Z0eHpWrg6DWpyfQ/xOqTQiuvUaBcazdvys1NbomKlNTm%2bULhvFu4AQkFStEpOZpsT3oLxzp14TN/94R0OSv0kqAgZm/GVMyye7QAxU%2b1hQ2x/uHlsPGeRGOPDVLnecHX/THb/dADO5V1x/8zUNrJOjVcPoJG8fXDWt6Uqx7usJscfCnaF6h6c9dMzgAOAHkyY/08YPcwGAsa8BEWHPIHyQ1VW3W2wSpS6kJ02kofJsU3OPB/swF0gHUNGUwsAB/jSvlms9EQQAuP1oPy0fxtZp8YDABXh7b1TAS1VuV6lFWcnw7ntYTpUhryiDwFS/MbR8TwJklG1hng/UgOokRm3M94R%2bz8lPtoRMOEZ1gXiPW/I3xnKbmcE43xeFaUnA9vIOjU%2bA0pPTG6JXigrOxkEuWkRurKfApGiXrKnakFQDFK8WJ/6PGnKY5XqUakZakHi3sdxPgzBZsWHZwoGnGoCBmDW5e21IxHPqvO879z9YTpkbZuj%2b%2bXHyUyd68UUI/UlbaYQcd%2bHx7SmnhjEeT3x1t/HcAMKs/PItusHZ0N1ju%2b9yqypL8g6NR4AD7KCJG2uJ996NOd8NlRnh8LZrZHqO8enkleY4q1qA8/hfSB2UP9WxnjcNcZieIzjUoL9Wxme/BmFkBhbC4aSV%2bgeJb%2b8tHDN3eMR8DDbfyPpUPbjJCPSqbG3QiNxFG7X4sr3s/Zf2j0Xbh6dplVCQBH6XJnpB7cRnKJDwZTBMdkFwZmt/lgdesKpLWOw9YHs1KmA88D1g8GY%2bYPQUJFPagxYgXOxspOBuou7IqFgZ2jhL2dmcvrfODazcU%2bESghc2B36D2ozt0XOLTm4AD05XU0MoO1QUN0Lfv4Ri6CdYZQjIDc1grwH%2bdsjIH/HHEyc4XAuPYz36R49U8adSw/H%2bWivF4mP5qS5Melpr%2b6LgZy0iD3cAUWjjFI3xOp1apTr7plovmDmd5G8DM1Oi5h8eW80XNwdgtWgL9PIFL6VEQR56eHcGIxbWcLR0DDI2RaGbQQX0Q%2brOw6BISCuHZxBiY8yPgcDP2uKD8zD80L4Z7T21V2zWmRsnYc6xTTyafD0AunMtkieB05uje57frsw9MKuEHbj6DROdfLoedkoesY/bw8FZA7cOhYGNO7msam4/YVC4Z5QZELoI4ARIwr3zKbwgsu4/1P8Fx2IgazUOVEy%2bE33vWBmaiSPvWPfzGuJihYV7p5DyusE1SMMvC4AuHE0CLc4f6AvS79cNQAiArpDmF93%2bPcKR35owmpODpnQOiDw0BDhQzsAu7BrDpz%2bLspRDj/jor0zmwaAH7fESJVHAjkICMA28gwqqDE0XDEAqzeksBdWgj6wMqovDOhrCk6OFuA0wIL3l4X3kbfESTz2c2UA64ZPGCbACGLJnRNbYl6kdZEJRl9vfL9pAPj84w%2bk0gNBIg%2bkzvn0xqG5pLDG0Oucxui9K/uDsSDygxOb3eCNPiYwpL%2b5kH7mMBTbfg4mWC268DG3MqbUYdC52jDSXd4TSQkwf8eXsc/Ruj9tjW667wSPfTNfurs/yFhmwNfFB2M4AChMyQl6AzC%2b1XkBWOOPhJT3%2bsGny99A6c/l3yvegHV4Lyd9JJ4ffOHSXjl/yElTEQKAwgwT4PUft8xtJcJwTtMBcHTzfOnGvmAFgK9KDioMUJSu9R55lIdBDv0A6oehEAgVZ4Kh/PQMBAaPwJf86AtVKD48XW/8OQMACFQFAAyBqxgCLygh0GQAeM7fIqFST8khsLwEQ4BygMKAR0EI55n%2bKobD%2bR0hkP1dOGRvo70/jIfIxd2z9dTnxqeH12eA9tr30ZQfjhrmoSa9kII8B5zdFjnu8t4onqhkb4kwqAcCtZTg6u754XJNUOv52ue1DCBwiWWYA9bTmgU7Qp9K%2byK26YzftHE5GW4ke6IjUrMqf4eernoW1AfBMLk9co/Gpoc9YrwMAFaB0YBrehmC36TXiW9jJDg9hvcx2x8p2h9DRog8UI/Cv0vSheCcugs7eX1R%2bcOWuZYy64wOb57ftADsl0A6cyCUe%2bLkvvAJhfsj4XxauI7O7Of1Hv6jxvO5tNcORkPmrvCPaa1LJ6YZH/9iQfP4g8T9wJV8J3g4KnnQ5Y%2bwTt8bQiCwxyWyJwVAnoPl7Q7VFqXOgxvRyzn9i2MXNy39z/m/L12QBktqz/U8B/wctN6EjUgsgtGJUPhZtC5vVyiBoM/mT8yEdIN3qd0WoVNNXgXwdmJxaVAy/5%2bc2nOd0TXSxXdZ4xleFv2hVO28RvwsPnujVOq0gv8nXueRPBU8PgQYmqB56LUS8rZj0tqBiqfWofJ/B8NgDJc0ITnfh8DdyCUAgxI14LEBdKOSZ/Ov5JyWP8Nm/K84ojut5rr9tVQP/kiC7gJtjWey/seI%2bUtCnil3WbkD3NYBc4nTIAjs54ilLBcByN2LB5udtdvduXpbolIr1Dee3snDE2LOvlAoWrmQseHxjDnHacEtBSpcVu6Lezf8OWV9zbi1XBdo%2b55UMXXDX2O8ZmSSBHJfNyKuhfg2CKRC19jw3EFzb98cHAvgHK9jI%2bIAFWUIAjzw%2bwCur3kXCjZF8WNuXrrhFvd44cdmNL5gcyRcWTcfymYtA3CKBxjBAeBr3BoSC7jm3UKXxVGoAw9B5rRGnxO07ol/sueDPtL3da7xvPIr90l5GTySTuhQqfwBWAEOnKurdlqJCiYwBIEhEwCGJXDRDY%2bHe2HL4MK%2bEMijY638zVAdwXu527AKRK/fWfAv0LjGCcMRSHCWQXWOZzXDV0E%2brnUe10RHAOpwusI72ZaD4BqvB6E8%2bE8Kh6pJ6yTouEgY7yaMV3muHaZzS3gArinkEfWNwbG6LMcouPbWQq4kCnAmuAgBUnRwIlSvj4K7uX5QdCAYCneHwAU895NcRLn2/Uy4lR0AlRvQqYOTABA08jifQ3iehF0ftIjRWiWDF%2btobdJB55pQrR6T5MpBcBE6gjSb6/7HvvVZtFHSuSeIhCfTXjMqaThDGoJLEimmVhRDWrJsxyhWNOg9RVlUnoyQDRkRz0XzUSTU5HtBzcWJUFMwSQjve4HmkwgAFzGOvyPPIeZLgOLB7wGtgeHGWQZibjW4JPIxmlGJ7lxXJ6ErvvsHv/4OEAlFMzqRT1g9MaU/hoAGnBNJOY3sadnrCVD%2b9nIoGDgPrry1EFROuGUNWY00jqsFgbw6JBE0wctAtQGBSJsBNekzQIWgaGYuBTY0UYyRjYfhcXwONc51ddBCPvf9Ycs5GLRmLQikC4aaK4bIxOQ3DXWumPzR7zO%2bYpowvsorhSeZsrCP2yIbisBl7SPGc7oTzUkJVP7uoFi44vwvuB39Oag9koQhQmn0MBmVyEMChspCfbqnp3oCDxv0KNyJ%2bQKuuCyBOzinzlnMU7tePRBQNwzNW/dnbmjPHTYpxegP7PfrpMKEdAn6Lxc/gHgkfg7uH9JCanlBfazrY576RFn0unZsMty8XgwlaRlQ/kYsVI9YDdoRa%2bTQiHus0DMaU%2b28Gt9ZDCXfHoGbJTdAMz6FzynCI67OmnV0Id1QR9T1ax4Kryw1ztx8CG1Z/2TG31ohigvV%2bCRjQf3kgeCWRF7R8cVk1PWxbqgUidMaYGNSoPpOGVRnXQXNgPehBo1SYQZXD18NGjSSDKV3KJPTZxJ6RmNorMZxGVT/VAjVpeXAPLG%2beHu1CIt66%2bmFdh6hmw7ckqFmQvIwkbCTnvzPEyAtkq5t/ESCriv4y1qPxDRe5CjUlxGvL6IGIAYQAMlQefsXqDpVCPDmBwCuifC4dx4rNHbgCqj6oQAqf7nHAQAZgEcMV9auZYGGdNV6JOzmtrReYnR508Yn/OFjwSeS6h2BXJVfck9MLmoYIRb5NeMNFDEAoBSqTl9CAFYAc62N3d8UHAsDliMAFx4B4DfWllkQTwlRV%2bWT7KAwmWx6ogsTHs%2bi6nFJ0RRXSC1NQ7z33wBoKAN%2bLwAG4aAhndVjkxbJ2%2bGTnRyLEj6ToJdM/5EJe2X6a%2bvHfrMEQOQCfmbQuicc5mHQcakR2dTwf4D5ie2jdM7HrZFKV0TRE6/7Lfo3BwDkMOCFGupefH/WhnaGNjXoUrJ/jdfaHlj%2b1ijx36ghMBABOI5J8OcyGYA1DQ4BfR5wi9fUTFrb29CmBl1qeeuombC2P4xKIVppGx0AYsCpS1BZ8QDY%2bPWCAS5PAgAenT3WgWpC0iDZpobnATxciPh3S3AE93UKANCoAOA7qk3HoQprAW64ssU2VAeeCNdTZThEtqnhAODLxnLrSMmkoQnwTwNAGMBLaOVMoL/X8ETI6wHsDzE8zDXowpeN5dZRnqRRQ0DxNjPoPyEDmMIA7A%2bRbXksAP8HGyEHmd7v3tUAAAAASUVORK5CYII=' /%3e%3c/svg%3e"},"path":"/author/troes-retardat/"}]}}]}}},"context":{}}